{"page":6,"total_results":27706,"total_pages":1386,"results":[{"vote_count":0,"id":507943,"video":false,"vote_average":0,"title":"ഓളു്","popularity":0.6,"poster_path":"\/9qQunVzv8lVQm7nNBJYg5JI8HR5.jpg","original_language":"ml","original_title":"ഓളു്","genre_ids":[14],"backdrop_path":null,"adult":false,"overview":"","release_date":"2018-12-31"},{"vote_count":0,"id":509635,"video":false,"vote_average":0,"title":"Alone","popularity":0.6,"poster_path":null,"original_language":"en","original_title":"Alone","genre_ids":[53],"backdrop_path":null,"adult":false,"overview":"","release_date":"2018-12-31"},{"vote_count":0,"id":510048,"video":false,"vote_average":0,"title":"ഒറ്റമുറി വെളിച്ചം","popularity":0.6,"poster_path":"\/in16dJDcPjdGPsrwj6IqfdtRjv3.jpg","original_language":"ml","original_title":"ഒറ്റമുറി വെളിച്ചം","genre_ids":[18],"backdrop_path":null,"adult":false,"overview":"","release_date":"2018-12-31"},{"vote_count":0,"id":512131,"video":false,"vote_average":0,"title":"Dr. Abdul Kalam","popularity":0.6,"poster_path":"\/4LOxo78YPBd9XSRvtIvJwCJbKsF.jpg","original_language":"hi","original_title":"Dr. Abdul Kalam","genre_ids":[],"backdrop_path":null,"adult":false,"overview":"","release_date":"2018-12-31"},{"vote_count":0,"id":512525,"video":false,"vote_average":0,"title":"In the Blood","popularity":0.672,"poster_path":null,"original_language":"en","original_title":"In the Blood","genre_ids":[18,14],"backdrop_path":null,"adult":false,"overview":"","release_date":"2018-12-31"},{"vote_count":0,"id":512865,"video":false,"vote_average":0,"title":"C'est ça l'amour","popularity":0.706,"poster_path":"\/ysB1zLEW9uD8QDq94HvMbokr3AG.jpg","original_language":"fr","original_title":"C'est ça l'amour","genre_ids":[18],"backdrop_path":"\/tru1I4uXcX9DMxoRbq9rZkXwEan.jpg","adult":false,"overview":"","release_date":"2018-12-31"},{"vote_count":0,"id":513208,"video":false,"vote_average":0,"title":"Itsy Bitsy","popularity":0.706,"poster_path":"\/6mWQs73WGUQobmiFbC1Qa4jVYtH.jpg","original_language":"en","original_title":"Itsy Bitsy","genre_ids":[27,18,53],"backdrop_path":null,"adult":false,"overview":"","release_date":"2018-12-31"},{"vote_count":0,"id":513384,"video":false,"vote_average":0,"title":"Medicine Men","popularity":1.184,"poster_path":null,"original_language":"en","original_title":"Medicine Men","genre_ids":[18],"backdrop_path":null,"adult":false,"overview":"","release_date":"2018-12-31"},{"vote_count":0,"id":513440,"video":false,"vote_average":0,"title":"The Secret of Karma","popularity":1.4,"poster_path":null,"original_language":"en","original_title":"The Secret of Karma","genre_ids":[878,10749],"backdrop_path":null,"adult":false,"overview":"","release_date":"2018-12-31"},{"vote_count":0,"id":515454,"video":false,"vote_average":0,"title":"Come True","popularity":0.6,"poster_path":null,"original_language":"en","original_title":"Come True","genre_ids":[878,27],"backdrop_path":null,"adult":false,"overview":"","release_date":"2018-12-31"},{"vote_count":0,"id":518983,"video":false,"vote_average":0,"title":"The Blake Mysteries: Ghost Stories","popularity":1.4,"poster_path":"\/rw1V5CkBIKNHbm8H5KnVBbiyBlp.jpg","original_language":"en","original_title":"The Blake Mysteries: Ghost Stories","genre_ids":[18,9648],"backdrop_path":null,"adult":false,"overview":"","release_date":"2018-12-31"},{"vote_count":0,"id":520198,"video":false,"vote_average":0,"title":"Detective","popularity":0.6,"poster_path":"\/hlougDZMVGQqiOkOX7sSEmgoZHm.jpg","original_language":"bn","original_title":"Detective","genre_ids":[],"backdrop_path":null,"adult":false,"overview":"","release_date":"2018-12-31"},{"vote_count":0,"id":520220,"video":false,"vote_average":0,"title":"Operation Agneepath","popularity":1.176,"poster_path":"\/AtTlhipv041adDBHX53jhilOVaw.jpg","original_language":"bn","original_title":"Operation Agneepath","genre_ids":[],"backdrop_path":null,"adult":false,"overview":"","release_date":"2018-12-31"},{"vote_count":0,"id":522023,"video":false,"vote_average":0,"title":"Weingut Wader","popularity":0.721,"poster_path":null,"original_language":"de","original_title":"Weingut Wader","genre_ids":[18],"backdrop_path":null,"adult":false,"overview":"","release_date":"2018-12-31"},{"vote_count":0,"id":523639,"video":false,"vote_average":0,"title":"Die Auferstehung","popularity":0.75,"poster_path":null,"original_language":"de","original_title":"Die Auferstehung","genre_ids":[18],"backdrop_path":null,"adult":false,"overview":"","release_date":"2018-12-31"},{"vote_count":0,"id":523861,"video":false,"vote_average":0,"title":"Green River: Part Three","popularity":0.6,"poster_path":null,"original_language":"en","original_title":"Green River: Part Three","genre_ids":[18,9648],"backdrop_path":null,"adult":false,"overview":"","release_date":"2018-12-31"},{"vote_count":0,"id":525633,"video":false,"vote_average":0,"title":"Flucht durchs Höllental","popularity":0.934,"poster_path":null,"original_language":"de","original_title":"Flucht durchs Höllental","genre_ids":[53],"backdrop_path":null,"adult":false,"overview":"","release_date":"2018-12-31"},{"vote_count":0,"id":526191,"video":false,"vote_average":0,"title":"LKG","popularity":0.6,"poster_path":null,"original_language":"ta","original_title":"LKG","genre_ids":[35,18],"backdrop_path":null,"adult":false,"overview":"","release_date":"2018-12-31"},{"vote_count":0,"id":526943,"video":false,"vote_average":0,"title":"Rickshaw Girl","popularity":0.6,"poster_path":"\/nLfHxGaXAHd3RaQYf9kW8DQ5CZ6.jpg","original_language":"bn","original_title":"Rickshaw Girl","genre_ids":[18,10751],"backdrop_path":null,"adult":false,"overview":"","release_date":"2018-12-31"},{"vote_count":0,"id":527633,"video":false,"vote_average":0,"title":"Reissleine","popularity":0.6,"poster_path":null,"original_language":"de","original_title":"Reissleine","genre_ids":[53],"backdrop_path":null,"adult":false,"overview":"","release_date":"2018-12-31"}]}